<svg width="29" height="23" viewBox="0 0 29 23" fill="none" xmlns="http://www.w3.org/2000/svg">
<circle cx="15" cy="12" r="11" fill="#00239C"/>
<path d="M17.2403 7H12.7596C11.2379 7 10 8.23801 10 9.75964V14.2404C10 15.7621 11.2379 17 12.7596 17H17.2403C18.7621 17 20 15.762 20 14.2404V9.75964C20.0001 8.23801 18.7621 7 17.2403 7ZM19.1128 14.2404C19.1128 15.2728 18.2728 16.1128 17.2404 16.1128H12.7596C11.7272 16.1128 10.8872 15.2728 10.8872 14.2404V9.75964C10.8872 8.72724 11.7272 7.88725 12.7596 7.88725H17.2403C18.2728 7.88725 19.1128 8.72724 19.1128 9.75964V14.2404H19.1128Z" fill="white"/>
<path d="M15.0006 9.42383C13.5797 9.42383 12.4238 10.5797 12.4238 12.0006C12.4238 13.4214 13.5797 14.5772 15.0006 14.5772C16.4214 14.5772 17.5773 13.4214 17.5773 12.0006C17.5773 10.5797 16.4214 9.42383 15.0006 9.42383ZM15.0006 13.6899C14.069 13.6899 13.3111 12.9321 13.3111 12.0005C13.3111 11.0689 14.069 10.311 15.0006 10.311C15.9322 10.311 16.6901 11.0689 16.6901 12.0005C16.6901 12.9321 15.9321 13.6899 15.0006 13.6899Z" fill="white"/>
<path d="M17.6848 8.67188C17.5139 8.67188 17.346 8.74108 17.2252 8.86234C17.1039 8.983 17.0342 9.15099 17.0342 9.32252C17.0342 9.49353 17.104 9.66145 17.2252 9.78271C17.3459 9.90338 17.5139 9.97317 17.6848 9.97317C17.8564 9.97317 18.0238 9.90338 18.145 9.78271C18.2663 9.66145 18.3355 9.49347 18.3355 9.32252C18.3355 9.15099 18.2663 8.983 18.145 8.86234C18.0243 8.74108 17.8564 8.67188 17.6848 8.67188Z" fill="white"/>
</svg>
