<svg width="67" height="67" viewBox="0 0 67 67" fill="none" xmlns="http://www.w3.org/2000/svg">
<path d="M18.0386 31.1009C21.9955 31.1009 25.214 27.8823 25.214 23.9267C25.214 19.9686 21.9955 16.75 18.0386 16.75C14.0817 16.75 10.8632 19.9686 10.8632 23.9254C10.8632 27.8823 14.0817 31.1009 18.0386 31.1009ZM18.0386 19.3269C20.5743 19.3269 22.6371 21.391 22.6371 23.9254C22.6371 26.4598 20.5743 28.524 18.0386 28.524C15.5029 28.524 13.4401 26.4611 13.4401 23.9267C13.4401 21.3923 15.5029 19.3269 18.0386 19.3269Z" fill="#E4002B"/>
<path d="M1.28857 0V51.5385V67H65.7117V51.5385V0H1.28857ZM3.8655 2.57692H63.1347V37.0136L49.8326 24.8196C49.5801 24.589 49.2477 24.4743 48.905 24.4821C48.5635 24.4975 48.2414 24.6483 48.0108 24.9008L35.3916 38.7221L29.2804 32.611C28.7985 32.1304 28.028 32.1059 27.5178 32.5543L5.95538 51.5385H3.8655V2.57692ZM63.1347 64.4231H3.8655V54.1154H63.1347V64.4231ZM9.85556 51.5385L28.3115 35.2897L41.5852 48.5621C42.089 49.0659 42.9033 49.0659 43.4071 48.5621C43.9109 48.0583 43.9109 47.244 43.4071 46.7402L37.2135 40.5466L49.0428 27.5924L63.1347 40.5092V51.5385H9.85556Z" fill="#00239C"/>
</svg>
